Aggregating some observations in a data frame • dplyrx
…
This data set contains the values of temperature (°C), absolute humidity (g / m\(^3\)), rainfall (mm) and hours of sunshine from 3 meteorological stations (Can Tho, Da Lat and Da Nang) for the months of January, May and September in 2013, 2014 and 2015. From here, imagine that you want to aggretate all the observations of the stations Can Tho and Da Lat. An obvious way to do so is probably to take the mean. This can be done so in two step with the package dplyr and with the aggregate_by function of the dplyrx package: First, we need to recode the stations selected with the same value and then used the aggregate_by function on the output.

library(dplyr)
meteo %>% 
  mutate(station = recode(station, `Can Tho` = "group_prov", `Da Lat`= "group_prov")) %>% 
  aggregate_by(station, month, year, .funs = mean)
#> # A tibble: 27 x 7
#> # Groups:   station, month [?]
#>    station    month      year temperature humidity rainfall sunshine
#>    <fct>      <ord>     <int>       <dbl>    <dbl>    <dbl>    <dbl>
#>  1 group_prov January    2013        21.1     20.4    10.0      217.
#>  2 group_prov January    2014        19.8     18.0     3.65     230.
#>  3 group_prov January    2015        20.4     19.1     0.05     244.
#>  4 group_prov May        2013        24.5     26.1   219.       213.
#>  5 group_prov May        2014        24.6     26.0   261.       218.
#>  6 group_prov May        2015        24.8     25.8   225.       226.
#>  7 group_prov September  2013        22.7     24.6   363.       120.
#>  8 group_prov September  2014        23.0     24.9   320.       164.
#>  9 group_prov September  2015        23.4     25.2   271.       164.
#> 10 Da Nang    January    2013        21.9     21.9    17.8      126.
#> # ... with 17 more rows

The second argument are listed all the variables that should be used to identify unique observations to aggregate in each of the stations Can Tho and Da Lat. Here we want aggregate by space but keep the temporal information contained in the variables month and year.

The last argument, .funs specifies the function that should be used to perform the aggregation. By default it’s sum but here it makes more sense to do mean.

We can naturally aggregate the observations and apply the function on temperature and humidity only, the argument .funs need to be specify as a list:

meteo %>% 
  mutate(station = recode(station, `Can Tho` = "group_prov", `Da Lat`= "group_prov")) %>% 
  aggregate_by(station, month, year, .funs = list(mean(temperature, humidity)))
#> # A tibble: 27 x 5
#> # Groups:   station, month [?]
#>    station    month      year `mean(temperature)` `mean(humidity)`
#>    <fct>      <ord>     <int>               <dbl>            <dbl>
#>  1 group_prov January    2013                21.1             20.4
#>  2 group_prov January    2014                19.8             18.0
#>  3 group_prov January    2015                20.4             19.1
#>  4 group_prov May        2013                24.5             26.1
#>  5 group_prov May        2014                24.6             26.0
#>  6 group_prov May        2015                24.8             25.8
#>  7 group_prov September  2013                22.7             24.6
#>  8 group_prov September  2014                23.0             24.9
#>  9 group_prov September  2015                23.4             25.2
#> 10 Da Nang    January    2013                21.9             21.9
#> # ... with 17 more rows
…
